Take-home_Ex03
…
im_top_fit %>%
  augment()

# A tsibble: 1,512 x 7 [1M]
# Key:       Country, .model [14]
   Country .model     Date Value .fitted .resid   .innov
   <chr>   <chr>     <mth> <dbl>   <dbl>  <dbl>    <dbl>
 1 China   ets    2015 Jan 4951    5457. -506.  -0.0928 
 2 China   ets    2015 Feb 4084.   3874.  210.   0.0543 
 3 China   ets    2015 Mar 4320.   5137. -817.  -0.159  
 4 China   ets    2015 Apr 4987.   4501.  486.   0.108  
 5 China   ets    2015 May 4554.   4847. -293.  -0.0605 
 6 China   ets    2015 Jun 4686.   4696.  -10.8 -0.00230
 7 China   ets    2015 Jul 4996.   4799.  196.   0.0409 
 8 China   ets    2015 Aug 4830.   4765.   65.2  0.0137 
 9 China   ets    2015 Sep 5005.   4875.  130.   0.0266 
10 China   ets    2015 Oct 5363.   5191.  171.   0.0330 
# ℹ 1,502 more rows
…
