Hands-on_Ex_09
…
as_tibble(iris_tree)

# A tibble: 299 × 4
   height leaf  label members
    <dbl> <lgl> <chr>   <int>
 1  0     TRUE  "108"       1
 2  0     TRUE  "131"       1
 3  0.265 FALSE ""          2
 4  0     TRUE  "103"       1
 5  0     TRUE  "126"       1
 6  0     TRUE  "130"       1
 7  0.346 FALSE ""          2
 8  0.520 FALSE ""          3
 9  0.557 FALSE ""          5
10  0     TRUE  "119"       1
# ℹ 289 more rows
…
