In-class_Ex07
…
Now we see it’s converted to date data type.

2.2 Conventional base ts object versus tibble object

2.2.1 ts_data is a tibble object

Show the code

ts_data

# A tibble: 144 × 34
   `Month-Year` `Republic of South Africa` Canada   USA Bangladesh Brunei China
   <date>                            <dbl>  <dbl> <dbl>      <dbl>  <dbl> <dbl>
 1 2008-01-01                         3680   6972 31155       6786   3729 79599
 2 2008-02-01                         1662   6056 27738       6314   3070 82074
 3 2008-03-01                         3394   6220 31349       7502   4805 72546
 4 2008-04-01                         3337   4764 26376       7333   3096 76112
 5 2008-05-01                         2089   4460 26788       7988   3586 64808
 6 2008-06-01                         2515   3888 29725       8301   5284 55238
 7 2008-07-01                         2919   5313 33183       9004   4070 80747
 8 2008-08-01                         2471   4519 27427       7913   4183 66625
 9 2008-09-01                         2492   3421 21588       7549   3160 52649
10 2008-10-01                         3023   4756 25112       7527   2983 54423
# ℹ 134 more rows
# ℹ 27 more variables: `Hong Kong SAR (China)` <dbl>, India <dbl>,
#   Indonesia <dbl>, Japan <dbl>, `South Korea` <dbl>, Kuwait <dbl>,
#   Malaysia <dbl>, Myanmar <dbl>, Pakistan <dbl>, Philippines <dbl>,
#   `Saudi Arabia` <dbl>, `Sri Lanka` <dbl>, Taiwan <dbl>, Thailand <dbl>,
#   `United Arab Emirates` <dbl>, Vietnam <dbl>, `Belgium & Luxembourg` <dbl>,
#   Finland <dbl>, France <dbl>, Germany <dbl>, Italy <dbl>, …
…
The code chunk below converting ts_data from tibble object into tsibble object by using as_tsibble() of tsibble R package.

ts_tsibble <- ts_data %>%
  mutate(Month = yearmonth(`Month-Year`)) %>%
  as_tsibble(index = `Month`)

Learning from the code

mutate() of dplyr package is used to derive a new field by transforming the data values in Month-Year field into month-year format. The transformation is performed by using yearmonth() of tsibble package. + as_tsibble() is used to convert the tibble data frame into tsibble data frame.

Show the code

ts_tsibble

# A tsibble: 144 x 35 [1M]
   `Month-Year` `Republic of South Africa` Canada   USA Bangladesh Brunei China
   <date>                            <dbl>  <dbl> <dbl>      <dbl>  <dbl> <dbl>
 1 2008-01-01                         3680   6972 31155       6786   3729 79599
 2 2008-02-01                         1662   6056 27738       6314   3070 82074
 3 2008-03-01                         3394   6220 31349       7502   4805 72546
 4 2008-04-01                         3337   4764 26376       7333   3096 76112
 5 2008-05-01                         2089   4460 26788       7988   3586 64808
 6 2008-06-01                         2515   3888 29725       8301   5284 55238
 7 2008-07-01                         2919   5313 33183       9004   4070 80747
 8 2008-08-01                         2471   4519 27427       7913   4183 66625
 9 2008-09-01                         2492   3421 21588       7549   3160 52649
10 2008-10-01                         3023   4756 25112       7527   2983 54423
# ℹ 134 more rows
# ℹ 28 more variables: `Hong Kong SAR (China)` <dbl>, India <dbl>,
#   Indonesia <dbl>, Japan <dbl>, `South Korea` <dbl>, Kuwait <dbl>,
#   Malaysia <dbl>, Myanmar <dbl>, Pakistan <dbl>, Philippines <dbl>,
#   `Saudi Arabia` <dbl>, `Sri Lanka` <dbl>, Taiwan <dbl>, Thailand <dbl>,
#   `United Arab Emirates` <dbl>, Vietnam <dbl>, `Belgium & Luxembourg` <dbl>,
#   Finland <dbl>, France <dbl>, Germany <dbl>, Italy <dbl>, …
…
